<?xml version="1.0" encoding="UTF-8" standalone="no"?>
<svg xmlns:rdf="http://www.w3.org/1999/02/22-rdf-syntax-ns#" xmlns="http://www.w3.org/2000/svg" version="1.1" xmlns:cc="http://creativecommons.org/ns#" viewBox="0 0 20.00081 19.999989" xmlns:dc="http://purl.org/dc/elements/1.1/">
<metadata>
<rdf:RDF>
<cc:Work rdf:about="">
<dc:format>image/svg+xml</dc:format>
<dc:type rdf:resource="http://purl.org/dc/dcmitype/StillImage"/>
</cc:Work>
</rdf:RDF>
</metadata>
<g transform="translate(-669.9994,-65)">
<rect style="color:#000000" fill-rule="evenodd" height="18" width="18" y="66" x="671" stroke-width="1.0000004" fill="#99b6d4"/>
<rect stroke-linejoin="round" style="color:#000000" height="18.99999" width="19.00081" stroke="#000" stroke-linecap="round" y="65.5" x="670.4994" stroke-width=".9999989" fill="none"/>
<rect height="12.99999" width="13.00081" y="69.5" x="674.4994"/>
<rect height="12.99999" width="13.00081" y="68.5" x="673.4994" fill="#fff"/>
</g>
</svg>
