<?xml version="1.0" encoding="UTF-8" standalone="no"?>
<svg xmlns:rdf="http://www.w3.org/1999/02/22-rdf-syntax-ns#" xmlns="http://www.w3.org/2000/svg" version="1.1" xmlns:cc="http://creativecommons.org/ns#" viewBox="0 0 16 15.970944" xmlns:dc="http://purl.org/dc/elements/1.1/">
<metadata>
<rdf:RDF>
<cc:Work rdf:about="">
<dc:format>image/svg+xml</dc:format>
<dc:type rdf:resource="http://purl.org/dc/dcmitype/StillImage"/>
</cc:Work>
</rdf:RDF>
</metadata>
<g transform="translate(-486.453,-190.02906)" stroke="#000">
<path stroke-linecap="round" fill="none" d="m486.953 205.5h15m0-4.0745c-6.5 4.5-8.5-6.9713-15-1m0-6.7577c2 5 2.1366-2.0683 4-3 2-1 2.3412 3.0236 3 5 1 3 2-3 4-4 2.8284-1.4142 0 7 4 3"/>
</g>
</svg>
