<?xml version="1.0" encoding="UTF-8" standalone="no"?>
<svg xmlns:rdf="http://www.w3.org/1999/02/22-rdf-syntax-ns#" xmlns="http://www.w3.org/2000/svg" version="1.1" xmlns:cc="http://creativecommons.org/ns#" xmlns:xlink="http://www.w3.org/1999/xlink" viewBox="0 0 15.9992 16" xmlns:dc="http://purl.org/dc/elements/1.1/">
<metadata>
<rdf:RDF>
<cc:Work rdf:about="">
<dc:format>image/svg+xml</dc:format>
<dc:type rdf:resource="http://purl.org/dc/dcmitype/StillImage"/>
</cc:Work>
</rdf:RDF>
</metadata>
<defs>
<linearGradient id="b" y2="350.1636" gradientUnits="userSpaceOnUse" x2="130.3522" gradientTransform="matrix(1 0 0 .996869 165.9423 -181.2098)" y1="343.258" x1="121.1177">
<stop stop-color="#fffdf8" offset="0"/>
<stop stop-color="#cdccc7" offset="1"/>
</linearGradient>
<linearGradient id="a" y2="215.9465" gradientUnits="userSpaceOnUse" x2="143.2251" gradientTransform="translate(158,-105)" y1="214.8174" x1="148">
<stop offset="0"/>
<stop stop-color="#7f7f7f" offset=".35076979"/>
<stop stop-color="#bfbfbf" offset=".59668732"/>
<stop stop-color="#dfdfdf" offset=".78382427"/>
<stop stop-color="#fff" offset="1"/>
</linearGradient>
</defs>
<g transform="translate(-281,-153)">
<path style="color:#000000" d="m281.5 153.5h14.9992v15h-14.9992v-15z" fill-rule="evenodd" stroke="#3465a4" stroke-linecap="square" stroke-dasharray="1.0000001, 2.0000002" stroke-width="1.0000001" fill="url(#b)"/>
<path style="color:#000000" d="m283.5 153.9828v14.0172-14.0172z" stroke="#73d216" stroke-linecap="square" stroke-width="1.0000001" fill="none"/>
<path style="color:#000000" d="m290.5 153.9828v14.0172-14.0172z" stroke="#73d216" stroke-linecap="square" stroke-width="1.0000001" fill="none"/>
<path style="color:#000000" d="m294.461 153.9828v14.0172-14.0172z" stroke="#73d216" stroke-linecap="square" stroke-width="1.0000001" fill="none"/>
<g transform="matrix(.5 0 0 .5 133.9992 105)" fill-rule="evenodd">
<path d="m302 115 2-2v-11h-3l-2 2h-1v-4h16v4h-1l-2-2h-3v11l2 2v1h-8v-1z"/>
<path fill="url(#a)" d="m304 115 1-1v-12h2v12l1 1h-4z"/>
</g>
<path fill-rule="evenodd" fill="#c80000" d="m290 162h1l1.5 1.5 1.5-1.5h1v1l-1.5 1.5 1.5 1.5v1h-1l-1.5-1.5-1.5 1.5h-1v-1l1.5-1.5-1.5-1.5v-1z"/>
</g>
</svg>
